cte_ped^cod_empresa^0^3^1^
cte_ped^doc_ped^2^4^2^
cte_ped^control^2^4^3^
cte_ped^bodega^1^2^4^
cte_ped^docmto^2^4^5^
cte_ped^sub_docmto^2^4^6^
cte_ped^fecha^7^4^7^
cte_ped^tipo^0^2^8^
cte_ped^clase^0^1^9^
cte_ped^tipo_doc^0^2^10^
cte_ped^doc_afecta^2^4^11^
cte_ped^sub_doc_afecta^2^4^12^
cte_ped^forma_pago^0^2^13^
cte_ped^cliente^2^4^14^
cte_ped^orden_compra^2^4^15^
cte_ped^vendedor^1^2^16^
cte_ped^transporte^0^2^17^
cte_ped^fe_del^7^4^18^
cte_ped^fe_al^7^4^19^
cte_ped^autoriza^0^15^20^
cte_ped^costo^8^2562^21^
cte_ped^sub_total^8^3074^22^
cte_ped^descuento^5^1282^23^
cte_ped^iva^8^2562^24^
cte_ped^total_doc^8^3074^25^
cte_ped^fe_oper^7^4^26^
cte_ped^hora^0^8^27^
cte_ped^usuario^0^15^28^
cte_ped^fe_anulado^7^4^29^
cte_ped^usuario_anul^0^15^30^
cte_ped^estatus^0^1^31^
cte_ped^con_problema^0^3^32^
empresas1^bodega^257^2^1^
empresas1^nit^256^15^2^
empresas1^razon_social^0^70^3^
empresas1^nom_sucursal^0^70^4^
empresas1^cod_sucursal^0^3^5^
empresas1^direccion1^0^70^6^
empresas1^direccion2^0^70^7^
empresas1^depto^0^20^8^
empresas1^municipio^0^20^9^
empresas1^codigo_postal^0^5^10^
empresas1^e_mail^0^50^11^
empresas1^telefonos^0^80^12^
empresas1^requestor^0^40^13^
empresas1^userface^0^20^14^
empresas1^url_services^13^250^15^
empresas1^llave_archivo^13^70^16^
empresas1^llave_pass^13^30^17^
empresas1_f^tipo_frase^257^2^1^
empresas1_f^codigo_escenario^257^2^2^
factura^empresa^0^3^1^
factura^bodega^1^2^2^
factura^serie^0^4^3^
factura^docmto^2^4^4^
factura^pedido^2^4^5^
factura^tipofc^0^1^6^
factura^fecha^7^4^7^
factura^cambio^5^514^8^
factura^estatus^0^1^9^
factura^cobronum^1^2^10^
factura^cliente^1^2^11^
factura^orden_compra^2^4^12^
factura^vendedor^1^2^13^
factura^fpago^0^2^14^
factura^transporte^0^2^15^
factura^emitida^1^2^16^
factura^autoriza^0^3^17^
factura^costo^8^2562^18^
factura^subtotal^8^2562^19^
factura^descuento^5^1282^20^
factura^iva^5^1794^21^
factura^total^8^2818^22^
factura^saldo^8^2562^23^
factura^ultimoa^7^4^24^
factura_log^correlativo^258^4^1^
factura_log^request_id^269^40^2^
factura_log^fac_id^258^4^3^
factura_log^fecha_envio^266^4365^4^
factura_log^fecha_finaliza^10^4365^5^
factura_log^estatus^257^2^6^
factura_log^numero_acceso^5^2304^7^
factura_log^interna_tipod^256^2^8^
factura_log^interna_serie^269^15^9^
factura_log^interna_numero^261^3840^10^
factura_log^intentos^1^2^11^
factura_log^tipo_respuesta^1^2^12^
factura_log^xml_docto^201^5120^13^
factura_log^xml_respuesta^201^10240^14^
factura_log^cod_archivo_cer^2^4^15^
factura_log^dir_arch_org^13^200^16^
factura_log^dir_arch_fir^13^200^17^
factura_log^dir_arch_cer^13^200^18^
factura_log^sat_uuid^13^40^19^
factura_log^certificador_nit^13^25^20^
factura_log^certificador_nombre^13^80^21^
factura_log^certificador_serie^0^8^22^
factura_log^certificador_numero^5^3840^23^
factura_log^certificador_fecha^10^4365^24^
factura_log^flag_error^257^2^25^
factura_log^msg_error^201^2000^26^
factura_xml^cod_archivo_cer^258^4^1^
factura_xml^fecha_hora^10^4365^2^
factura_xml^archivo_xml^12^56^3^
facturafel_e^serie^0^20^1^
facturafel_e^num_doc^5^3840^2^
facturafel_e^tipod^0^2^3^
facturafel_e^fecha^7^4^4^
facturafel_e^fecha_em^0^35^5^
facturafel_e^fecha_anul^0^35^6^
facturafel_e^num_aut^0^20^7^
facturafel_e^fecha_re^0^15^8^
facturafel_e^rango_i^5^3072^9^
facturafel_e^rango_f^5^3072^10^
facturafel_e^from^0^50^11^
facturafel_e^to^0^50^12^
facturafel_e^cc^0^50^13^
facturafel_e^formats^0^10^14^
facturafel_e^tipo_doc^0^12^15^
facturafel_e^estado_doc^0^20^16^
facturafel_e^ant_serie^13^20^17^
facturafel_e^ant_numdoc^5^3840^18^
facturafel_e^ant_fecemi^7^4^19^
facturafel_e^ant_resoluc^13^30^20^
facturafel_e^c_moneda^0^3^21^
facturafel_e^tipo_cambio^0^10^22^
facturafel_e^info_reg^0^15^23^
facturafel_e^num_int^5^5120^24^
facturafel_e^nit_e^0^15^25^
facturafel_e^nombre_c^0^70^26^
facturafel_e^idioma_e^0^2^27^
facturafel_e^nombre_e^0^70^28^
facturafel_e^codigo_e^0^3^29^
facturafel_e^dispositivo_e^0^3^30^
facturafel_e^direccion_e^0^70^31^
facturafel_e^departamento_e^0^20^32^
facturafel_e^municipio_e^0^20^33^
facturafel_e^pais_e^0^2^34^
facturafel_e^codpos_e^5^1280^35^
facturafel_e^nit_r^0^15^36^
facturafel_e^es_cui^1^2^37^
facturafel_e^nombre_r^0^70^38^
facturafel_e^idioma_r^0^2^39^
facturafel_e^direccion_r^0^70^40^
facturafel_e^departamento_r^0^20^41^
facturafel_e^municipio_r^0^20^42^
facturafel_e^pais_r^0^2^43^
facturafel_e^codpos_r^5^1280^44^
facturafel_e^total_b^5^2562^45^
facturafel_e^total_d^5^2562^46^
facturafel_e^monto_d^5^2562^47^
facturafel_e^total_i^5^2562^48^
facturafel_e^ing_netosg^5^2562^49^
facturafel_e^total_iva1^5^2562^50^
facturafel_e^tipo1^0^10^51^
facturafel_e^base1^5^2562^52^
facturafel_e^tasa1^5^2562^53^
facturafel_e^monto1^5^2562^54^
facturafel_e^total_neto^5^2562^55^
facturafel_e^serie_e^0^20^56^
facturafel_e^numdoc_e^0^40^57^
facturafel_e^autorizacion^0^200^58^
facturafel_e^estatus^0^2^59^
facturafel_e^fac_id^262^4^60^
facturafel_e^p_descuento^5^1282^61^
facturafel_e^mto_descuento^5^3586^62^
facturafel_e^fel_msg^2^4^63^
facturafel_e^id_factura^2^4^64^
facturafel_e^total_en_letras^0^250^65^
facturafel_e^tipo_pago^0^2^66^
facturafel_e^num_oc^0^20^67^
facturafel_e^un_pago_de^5^3586^68^
facturafel_e^npagos^1^2^69^
facturafel_e^mto_pago^5^3586^70^
facturafel_e^dia_pago^1^2^71^
facturafel_e^fecha_pago^7^4^72^
facturafel_e^nom_firma^0^80^73^
facturafel_e^dpi_firma^0^20^74^
facturafel_e^vencod^0^5^75^
facturafel_e^marca^0^25^76^
facturafel_e^modelo^0^25^77^
facturafel_e^serie_planta^0^25^78^
facturafel_e^nota1^0^75^79^
facturafel_e^documlk^2^4^80^
facturafel_e^num_interno^0^20^81^
facturafel_ed^fac_id^2^4^1^
facturafel_ed^serie^0^20^2^
facturafel_ed^num_doc^5^3840^3^
facturafel_ed^tipod^0^2^4^
facturafel_ed^fecha^7^4^5^
facturafel_ed^descrip_p^0^70^6^
facturafel_ed^codigo_p^0^14^7^
facturafel_ed^unidad_m^0^3^8^
facturafel_ed^cantidad^5^1280^9^
facturafel_ed^precio_u^5^3586^10^
facturafel_ed^precio_t^5^3586^11^
facturafel_ed^descto_t^5^3586^12^
facturafel_ed^descto_m^5^3586^13^
facturafel_ed^precio_p^5^3586^14^
facturafel_ed^precio_m^5^3586^15^
facturafel_ed^total_imp^5^3586^16^
facturafel_ed^ing_netos^5^3586^17^
facturafel_ed^total_iva^5^3586^18^
facturafel_ed^tipo^0^15^19^
facturafel_ed^base^5^3586^20^
facturafel_ed^tasa^5^2306^21^
facturafel_ed^monto^5^3586^22^
facturafel_ed^categoria^0^10^23^
facturafel_ed^txt_especial^0^1^24^
facturafel_ed^txt_largo^201^4096^25^
